^D:\УНИВЕР\4 КУРС\MODELSUN\GLAVA1.2ZADACHA4(SYSTEMADIFUR)\GLAVA1.2ZADACHA4(SYSTEMADIFUR)\DEBUG\SOURCE.OBJ
D:\Универ\4 курс\MODELSUN\GLAVA1.2ZADACHA4(SYSTEMADIFUR)\DEBUG\GLAVA1.2ZADACHA4(SYSTEMADIFUR).ILK
D:\Универ\4 курс\MODELSUN\GLAVA1.2ZADACHA4(SYSTEMADIFUR)\DEBUG\GLAVA1.2ZADACHA4(SYSTEMADIFUR).EXE
D:\УНИВЕР\4 КУРС\MODELSUN\GLAVA1.2ZADACHA4(SYSTEMADIFUR)\DEBUG\GLAVA1.2ZADACHA4(SYSTEMADIFUR).PDB
