^D:\УНИВЕР\4 КУРС\OPTIMIZATIONMETHODS UNIVER\GLAVA2RAVNOMERNORASPREDSLYCHVELECHINA(4)\GLAVA2RAVNOMERNORASPREDSLYCHVELECHINA(4)\SOURCE.CPP
D:\Универ\4 курс\OPTIMIZATIONMETHODS UNIVER\GLAVA2RAVNOMERNORASPREDSLYCHVELECHINA(4)\GLAVA2RAVNOMERNORASPREDSLYCHVELECHINA(4)\DEBUG\VC140.PDB
D:\Универ\4 курс\OPTIMIZATIONMETHODS UNIVER\GLAVA2RAVNOMERNORASPREDSLYCHVELECHINA(4)\GLAVA2RAVNOMERNORASPREDSLYCHVELECHINA(4)\DEBUG\VC140.IDB
D:\Универ\4 курс\OPTIMIZATIONMETHODS UNIVER\GLAVA2RAVNOMERNORASPREDSLYCHVELECHINA(4)\GLAVA2RAVNOMERNORASPREDSLYCHVELECHINA(4)\DEBUG\SOURCE.OBJ
^D:\УНИВЕР\4 КУРС\MODELSUN\GLAVA2RAVNOMERNORASPREDSLYCHVELECHINA(4)\GLAVA2RAVNOMERNORASPREDSLYCHVELECHINA(4)\SOURCE.CPP
D:\Универ\4 курс\MODELSUN\GLAVA2RAVNOMERNORASPREDSLYCHVELECHINA(4)\GLAVA2RAVNOMERNORASPREDSLYCHVELECHINA(4)\DEBUG\VC140.PDB
D:\Универ\4 курс\MODELSUN\GLAVA2RAVNOMERNORASPREDSLYCHVELECHINA(4)\GLAVA2RAVNOMERNORASPREDSLYCHVELECHINA(4)\DEBUG\VC140.IDB
D:\Универ\4 курс\MODELSUN\GLAVA2RAVNOMERNORASPREDSLYCHVELECHINA(4)\GLAVA2RAVNOMERNORASPREDSLYCHVELECHINA(4)\DEBUG\SOURCE.OBJ
